Art Collections
…
##  [1] "name"             "gender"           "year_of_birth"    "year_of_death"   
##  [5] "place_of_birth"   "place_of_death"   "artist_role"      "title"           
##  [9] "medium"           "credit_line"      "year"             "acquisition_year"
## [13] "width"            "height"           "depth"            "inscription"

Artists that died where they were born

staying_artists <- subset_df %>% 
  select(name, gender, place_of_birth, place_of_death) %>% 
  filter(place_of_birth == place_of_death) %>% 
  distinct(name, place_of_birth)

staying_artists

## # A tibble: 235 x 2
##    name                   place_of_birth           
##    <chr>                  <chr>                    
##  1 Adams, Harry William   Worcester, United Kingdom
##  2 Alexander, William     Maidstone, United Kingdom
##  3 Alken, Henry Thomas    London, United Kingdom   
##  4 Alken, Samuel, Senior  London, United Kingdom   
##  5 Allan, Sir William     Edinburgh, United Kingdom
##  6 Arbus, Diane           New York, United States  
##  7 Artaud, William        London, United Kingdom   
##  8 Ayot, Pierre           Qubec, Canada           
##  9 Barenger, James        London, United Kingdom   
## 10 Barret, George, Junior London, United Kingdom   
## #  with 225 more rows
…
  ) %>% 
  count(year, word, sort = T) %>% 
  bind_tf_idf(
    word,
    year,
    n
  ) %>% 
  group_by(year) %>% 
  slice_max(tf_idf) %>% 
  select(year, word, n, tf_idf) %>% 
  filter(n > 10,
         !(word %in% c("blank", "untitled", "no"))) %>% 
  arrange(desc(tf_idf))

## # A tibble: 69 x 4
## # Groups:   year [67]
##     year word             n tf_idf
##    <dbl> <chr>        <int>  <dbl>
##  1  2012 memory          39  2.33 
##  2  1906 anatomical      20  0.382
##  3  2007 hashem         117  0.343
##  4  2007 madani         117  0.343
##  5  1953 apn             20  0.330
##  6  1983 canto           44  0.248
##  7  1978 gardeners       40  0.219
##  8  2003 empossamento    11  0.218
##  9  1982 canto           56  0.179
## 10  1858 known           30  0.176
## #  with 59 more rows
…
    token = "ngrams",
    n = 2
  ) %>% 
  count(year, bigram, sort = T) %>% 
  bind_tf_idf(
    bigram,
    year,
    n
  ) %>% 
  group_by(year) %>% 
  slice_max(tf_idf) %>% 
  select(year, bigram, n, tf_idf) %>% 
  arrange(desc(n)) 

## # A tibble: 1,599 x 4
## # Groups:   year [360]
##     year bigram             n tf_idf
##    <dbl> <chr>          <int>  <dbl>
##  1  1819 view of          565 0.0303
##  2  1816 from the         335 0.0436
##  3  1801 from the         245 0.0261
##  4  1826 not known        232 0.0475
##  5  1826 title not        232 0.0475
##  6  1831 from the         227 0.0307
##  7  1809 by turner        192 0.101 
##  8  2001 no title         190 0.612 
##  9  1976 no title         158 0.292 
## 10  1830 with mountains   148 0.0486
## #  with 1,589 more rows
…
  count(name, word, sort = T) %>% 
  bind_tf_idf(
    word,
    name,
    n
  ) %>% 
  group_by(name) %>% 
  slice_max(tf_idf, n = 1, with_ties = F) %>% 
  select(name, word, n, tf_idf) %>% 
  anti_join(stop_words) %>% 
  filter(!(word %in% c("title", "untitled", "blank")),
         n > 1) %>% 
  arrange(desc(n), desc(tf_idf))

## # A tibble: 782 x 4
## # Groups:   name [782]
##    name                              word          n tf_idf
##    <chr>                             <chr>     <int>  <dbl>
##  1 Beuys, Joseph                     beuys       288  0.671
##  2 Moore, Henry, OM, CH              reclining   156  0.339
##  3 Phillips, Esq Tom                 canto       136  1.02 
##  4 Zaatari, Akram                    hashem      117  0.684
##  5 Daniell, William                  castle       98  0.140
##  6 Stanfield, Clarkson Frederick     engraved     73  0.509
##  7 Burne-Jones, Sir Edward Coley, Bt study        61  0.177
##  8 Moriyama, Daido                   memory       40  5.40 
##  9 Arnatt, Keith                     gardeners    40  0.729
## 10 Almeida, Helena                   pigment      38  2.66 
## #  with 772 more rows
…
